…
``` r
x <- sf::st_as_sf(x, coords = c("lon", "lat"),
                  dim = 'XY', crs = 4326)
x
```

    ## Simple feature collection with 113 features and 2 fields
    ## Geometry type: POINT
    ## Dimension:     XY
    ## Bounding box:  xmin: -126.4856 ymin: 29.84637 xmax: -117.2736 ymax: 37.84743
    ## Geodetic CRS:  WGS 84
    ## # A tibble: 113 × 3
    ##    station depth             geometry
    ##  *   <dbl> <dbl>          <POINT [°]>
    ##  1       1    63 (-117.3054 32.95637)
    ##  2       2    20 (-117.2736 32.94905)
    ##  3       3    20  (-117.4654 33.2435)
    ##  4       4   609 (-117.3944 32.91304)
    ##  5       5   846 (-117.5312 32.84637)
    ##  6       6   616 (-117.8729 32.67971)
    ##  7       7  1627 (-118.2139 32.51304)
    ##  8       8  1376 (-118.5542 32.34637)
    ##  9       9  1452  (-118.894 32.17971)
    ## 10      10  1588 (-119.2331 32.01304)
    ## # … with 103 more rows
    ## # ℹ Use `print(n = ...)` to see more rows
…
A shallow subset, `[`, yields the same type of sf object, but with just
the specified variables. Not that it is still a simple feature object.

``` r
x['depth']
```

    ## Simple feature collection with 113 features and 1 field
    ## Geometry type: POINT
    ## Dimension:     XY
    ## Bounding box:  xmin: -126.4856 ymin: 29.84637 xmax: -117.2736 ymax: 37.84743
    ## Geodetic CRS:  WGS 84
    ## # A tibble: 113 × 2
    ##    depth             geometry
    ##    <dbl>          <POINT [°]>
    ##  1    63 (-117.3054 32.95637)
    ##  2    20 (-117.2736 32.94905)
    ##  3    20  (-117.4654 33.2435)
    ##  4   609 (-117.3944 32.91304)
    ##  5   846 (-117.5312 32.84637)
    ##  6   616 (-117.8729 32.67971)
    ##  7  1627 (-118.2139 32.51304)
    ##  8  1376 (-118.5542 32.34637)
    ##  9  1452  (-118.894 32.17971)
    ## 10  1588 (-119.2331 32.01304)
    ## # … with 103 more rows
    ## # ℹ Use `print(n = ...)` to see more rows
…
